<?xml version="1.0" encoding="utf-8"?>
<!-- Generator: Adobe Illustrator 23.1.1, SVG Export Plug-In . SVG Version: 6.00 Build 0)  -->
<svg version="1.1" id="Capa_1" xmlns="http://www.w3.org/2000/svg" xmlns:xlink="http://www.w3.org/1999/xlink" x="0px" y="0px"
	 viewBox="0 0 429 429" style="enable-background:new 0 0 429 429;" xml:space="preserve">
<style type="text/css">
	.st0{fill:#FFFFFF;}
</style>
<path class="st0" d="M130.7,137.9c9.1,0,16.5-7.4,16.5-16.5c0-9.1-7.4-16.6-16.5-16.6c-9.1,0-16.5,7.4-16.5,16.6
	C114.2,130.4,121.6,137.9,130.7,137.9z"/>
<path class="st0" d="M174.2,74.5c5.9,0,10.8-4.8,10.8-10.8c0-5.9-4.9-10.8-10.8-10.8s-10.8,4.8-10.8,10.8
	C163.4,69.7,168.3,74.5,174.2,74.5z"/>
<path class="st0" d="M380.4,153.4c14.3,0,26-11.7,26-26s-11.6-26-26-26s-26,11.6-26,26C354.4,141.7,366.1,153.4,380.4,153.4z"/>
<path class="st0" d="M414.9,78.7c4.9,0,8.8-4,8.8-8.8s-3.9-8.8-8.8-8.8c-4.8,0-8.7,4-8.7,8.8S410.1,78.7,414.9,78.7z"/>
<path class="st0" d="M264.2,193.8l36.3-12l-15-2.8c-10.3-1.9-20.8-2.5-31.2-1.8l4.8,14.2C259.8,193.4,262.1,194.5,264.2,193.8
	L264.2,193.8z"/>
<path class="st0" d="M59.5,237.2c0.5,0.6,0.9,1.2,1.1,2l5.2,17c0.1,0.1,0.1,0.1,0.1,0.2l1.8,6l6.2,20.5c0.2,0.7,0.3,1.5,0.2,2.2
	l1.2,3.9c0-0.6,0.1-1.2,0.2-1.8c0.1-0.2,0.1-0.4,0.1-0.6c0.2-0.9,0.4-1.7,0.8-2.6c0.1-0.2,0.2-0.4,0.3-0.7c0.2-0.6,0.5-1.2,0.8-1.7
	c0.2-0.3,0.4-0.5,0.6-0.8c0.3-0.4,0.7-1,1-1.3c0.3-0.3,0.5-0.6,0.7-0.8c0.4-0.4,0.8-0.8,1.2-1.2c0.3-0.2,0.6-0.4,0.8-0.6
	c0.4-0.4,1-0.7,1.6-1c0.2-0.2,0.5-0.3,0.8-0.4c0.8-0.4,1.7-0.8,2.6-1.1l14.7-4.3c1-0.3,2-0.4,2.9-0.6c0.2-0.1,0.4,0,0.6,0
	c2.7-0.2,5.4,0.3,7.8,1.3c0.3-0.4,0.7-0.8,1-1.3c0.2-0.3,0.4-0.6,0.7-0.9c0.5-0.5,1-0.9,1.5-1.3c0.2-0.2,0.4-0.4,0.6-0.6
	c0.6-0.4,1.2-0.8,1.9-1.2c0.2-0.1,0.3-0.3,0.6-0.4c0.8-0.4,1.8-0.8,2.7-1.1l14.7-4.3c1-0.3,1.9-0.5,2.9-0.6h1
	c0.6-0.1,1.2-0.1,1.8-0.1c0.4,0.1,0.8,0.1,1.1,0.2c0.6,0.1,1.1,0.2,1.7,0.3c0.4,0.1,0.8,0.3,1.2,0.4c0.5,0.2,1,0.3,1.5,0.5
	c0.1,0,0.1,0.1,0.2,0.1c0.1-0.2,0.3-0.4,0.4-0.6c0.4-0.5,0.8-1.1,1.2-1.6c0.1-0.1,0.3-0.2,0.4-0.3c0.6-0.6,1.1-1.1,1.7-1.6
	c0,0,0.1,0,0.1-0.1c0.7-0.5,1.5-1,2.3-1.5c0.9-0.4,1.8-0.8,2.7-1.1l14.7-4.3c0.8-0.2,1.6-0.4,2.4-0.5c0.3-0.1,0.6-0.1,0.8-0.1
	c0.5-0.1,1-0.1,1.5-0.1c0.3,0,0.6,0,1,0.1c0.4,0,0.9,0.1,1.3,0.1c0.3,0.1,0.7,0.2,1,0.2c0.4,0.1,0.8,0.2,1.3,0.3
	c0.3,0.1,0.6,0.2,1,0.3c0.4,0.2,0.8,0.3,1.2,0.5c0.3,0.2,0.6,0.3,1,0.4c0.4,0.2,0.7,0.4,1.1,0.7c0.3,0.2,0.6,0.3,0.8,0.6
	c0.3,0.3,0.7,0.6,1.1,1c0.2,0.2,0.4,0.4,0.7,0.6c0.1,0.1,0.1,0.1,0.2,0.1c1.7,0.6,3.3,1.5,4.7,2.6l4.8-1.4l161.7-47.7
	c3.9-2.9,6.3-7.5,6.3-12.5c0-1.6-0.2-3.1-0.7-4.6c-2.6-8.3-11.5-13-19.8-10.5l-9.6,2.9c-2.2,0.7-4.3,1.1-6.4,1.5
	c-0.1,0-0.1,0.1-0.2,0.1l-60.8,20.2c-1.6,0.5-3.2,0.8-4.8,0.8c-6.3,0-12.3-4-14.4-10.4l-5.5-16.5c-5.8,0.9-11.6,2.1-17.2,3.9
	L58.2,232.6L59.5,237.2z"/>
<path class="st0" d="M139.9,193.8l-61.2-28.4l-36.3,12l28.6,36.5L139.9,193.8z"/>
<path class="st0" d="M167.4,346.5v-0.1c-0.1,0-0.1,0-0.1-0.1L145.9,274c-0.1-0.2-0.2-0.4-0.2-0.6c-0.1-0.1-0.1-0.1-0.1-0.2v-0.1
	c-1.1-2.1-3.5-3.2-5.8-2.5l-14.7,4.4c-2.4,0.7-3.9,3-3.5,5.4c0,0,0,0.1,0.1,0.1c0,0.1,0.1,0.2,0.1,0.4l0.7,2.3l20.8,70.1
	c0.1,0.1,0.1,0.1,0.1,0.1c0.1,0.1,0.1,0.2,0.1,0.3c0.1,0.2,0.1,0.3,0.2,0.4c0.1,0.2,0.2,0.4,0.3,0.6c1.2,1.9,3.5,2.7,5.6,2.1
	l14.7-4.3c2.2-0.7,3.6-2.6,3.6-4.9v-0.1c0-0.2-0.1-0.3-0.1-0.4C167.5,347,167.5,346.8,167.4,346.5L167.4,346.5z"/>
<path class="st0" d="M132.5,356.8v-0.1l-1.8-6.1l-20.2-67.5c-0.8-1.8-3.4-3-5.8-2.3L90,285.2c-2.3,0.7-3.8,2.9-3.5,5.3l1.2,4.1
	l12.6,42.4l7.9,26.7c0.1,0.5,0.3,0.8,0.4,1.1c0.1,0,0.1,0.1,0.1,0.1c1.2,1.8,3.5,2.7,5.6,2.1l14.7-4.3c2.1-0.6,3.6-2.6,3.6-4.8v-0.1
	c0-0.4-0.1-0.6-0.1-0.8L132.5,356.8z"/>
<path class="st0" d="M381.6,212.5l-187.8,55.3l18.5,62.4L400.2,275c14.1-4.2,23.5-16.7,23.5-31.2c0-3.1-0.4-6.2-1.3-9.2
	C417.2,217.3,398.9,207.4,381.6,212.5L381.6,212.5z M372.3,231.2l-16.1,4.8c-0.5,0.2-1.1,0.2-1.6,0.2c-2.4,0-4.6-1.6-5.4-4
	c-0.9-3,0.8-6,3.8-6.9l16.1-4.8c2.9-0.8,6,0.8,6.9,3.8C376.9,227.2,375.2,230.3,372.3,231.2L372.3,231.2z"/>
<path class="st0" d="M180.8,263.7c-0.1-0.1-0.2-0.6-0.4-1c-0.1-0.1-0.3-0.4-0.4-0.5c-1.2-1.7-3.4-2.4-5.4-1.8l-14.7,4.3
	c-2.2,0.7-3.7,2.7-3.5,4.9c0,0.2,0.1,0.4,0.1,0.6l0.8,2.6l20.8,70.3c0,0,0.1,0,0.1,0.1s0,0.1,0.1,0.2c0.1,0.3,0.2,0.6,0.3,0.8
	c0.1,0.1,0.1,0.2,0.2,0.3c0,0.1,0,0.1,0.1,0.1c1.1,1.8,3.4,2.6,5.5,2l14.7-4.3c2.1-0.6,3.6-2.6,3.6-4.8v-0.1c0-0.5-0.1-0.7-0.1-0.8
	L180.8,263.7z"/>
<path class="st0" d="M78.9,304.4l-4.4,1.3c-0.6,0.1-1.1,0.2-1.6,0.2c-1.4,0-2.7-0.6-3.7-1.5l-3.6,1.1l9.3,31.3
	c0.1,0.1,0.1,0.3,0.1,0.4l9.2,30.7l12.5-3.7l-6-20.2L78.9,304.4z"/>
<path class="st0" d="M62.6,339.5l-0.8-2.7l-3.5-11.6l-1.6-5.3c-7.9-0.5-15.2,0.5-21.6,3C18.4,329.3,7.5,346.3,2,357.1
	c7.2-1.3,14.5-2,21.8-2c3.6,0,7.2,0.2,10.8,0.5c2.2,0.2,4,1.6,4.8,3.7c0.7,2,0.2,4.3-1.3,5.9l-6.3,6.2c6.1-0.2,13.8-1.1,21-3.9
	c5.4-2.1,10.5-5.4,15.3-9.7l-1.7-5.7L62.6,339.5z"/>
<path class="st0" d="M60.5,282.2c0.3-0.1,0.6-0.2,1-0.4l-1.8-6.1l-3.3-10.9l-0.3-0.8l-3.2-10.7l-1.8-6.1c-1.2,0.3-2.5,0.7-3.7,1.2
	c-15,5.8-24,22.1-27.6,30.1C27.8,282,45.5,288.1,60.5,282.2L60.5,282.2z"/>
</svg>
